1,lifeform_veg_cat_l4a_change
2,canopyco_veg_cat_l4d_change
3,watersea_veg_cat_l4a_au_change
4,waterstt_wat_cat_l4a_change
5,inttidal_wat_cat_l4a_change
6,waterper_wat_cat_l4d_au_change
7,baregrad_phy_cat_l4d_au_change
